<?xml version="1.0" encoding="UTF-8" standalone="no"?>
<svg
   xmlns:dc="http://purl.org/dc/elements/1.1/"
   xmlns:cc="http://creativecommons.org/ns#"
   xmlns:rdf="http://www.w3.org/1999/02/22-rdf-syntax-ns#"
   xmlns:svg="http://www.w3.org/2000/svg"
   xmlns="http://www.w3.org/2000/svg"
   height="162.22717"
   width="215.50821"
   xml:space="preserve"
   viewBox="0 0 215.50821 162.22717"
   y="0px"
   x="0px"
   id="Layer_1"
   version="1.1"><metadata
   id="metadata883"><rdf:RDF><cc:Work
       rdf:about=""><dc:format>image/svg+xml</dc:format><dc:type
         rdf:resource="http://purl.org/dc/dcmitype/StillImage" /><dc:title></dc:title></cc:Work></rdf:RDF></metadata><defs
   id="defs881" />
<style
   id="style869"
   type="text/css">
	.st0{stroke:#000000;stroke-width:6;stroke-miterlimit:10;}
	.st1{fill:#FFFFFF;}
	.st2{font-family:'FuturaBT-Medium';}
	.st3{font-size:68px;}
	.st4{font-family:'Futura-Medium';}
</style>
<g
   transform="translate(-148.33681,-188.03917)"
   style="fill:none"
   id="XMLID_2082_">
	<g
   style="fill:none"
   id="XMLID_2083_">
		<path
   style="fill:none;stroke:#000000;stroke-width:6;stroke-miterlimit:10"
   d="m 292,314.1 c -31,5.6 -56.9,7.9 -79.8,2.5 l -35.6,27.4 1.5,-42.5 c -18.8,-9.2 -27.6,-31.7 -26.7,-52 1.1,-23.4 14.7,-39.6 51.8,-49.9 42.7,-11.8 108.1,-14.9 138,13.8 14.4,13.9 22.5,30.6 18.7,45.6 -7.3,29.2 -50.2,50.2 -67.9,55.1 -0.6,0.1 0.5,-0.1 0,0 z m -137,-64 c -0.8,16.9 8.2,47.1 27,49.2 l -1.3,18.3 -1.3,20.7 30,-24.3 0.7,-0.7 c 21.5,5.7 67.9,3.3 88.3,-4.7 6,-2.3 21.6,-10.4 22,-10.7 15.3,-9.2 31.5,-19.3 37.2,-41.8 2.7,-10.6 -7.2,-29.7 -18.5,-40.5 -26.6,-25.6 -95.5,-24 -134.8,-13.5 -31.9,9 -48.4,30.1 -49.3,48 z"
   class="st0"
   id="XMLID_2084_" />
	</g>
	<path
   style="fill:none"
   d="m 179.7,297 c -17.3,-9 -24,-16.8 -26.4,-47.8 -4,-53.1 139.1,-76.6 187,-30.7 47.9,45.9 -26.7,87.6 -46.3,92.3 -32,7.6 -66.8,3.2 -87.8,-2.3 l -27.9,30.3 z"
   class="st1"
   id="XMLID_2087_" />
</g>
<text
   y="104.29413"
   x="117.99269"
   style="font-size:85px;font-family:FuturaBT-Medium;stroke-width:1.25"
   class="st2 st3"
   id="XMLID_1_">ñ</text>

<text
   y="71.627533"
   x="39.999893"
   style="font-size:85px;font-family:FuturaBT-Medium;stroke-width:1.25"
   class="st2 st3"
   id="XMLID_2_">n</text>

<text
   y="79.713196"
   x="106.95696"
   style="font-size:83.28265381px;font-family:Futura-Medium;stroke-width:1.22474492"
   class="st4 st3"
   transform="scale(0.81649658,1.2247449)"
   id="XMLID_3_">/</text>

</svg>